<?xml version="1.0" encoding="UTF-8"?>
<DataFileEntity>
   <description></description>
   <name>filterChannel</name>
   <tag></tag>
   <connectionProperties/>
   <containsHeaders>true</containsHeaders>
   <csvSeperator></csvSeperator>
   <dataFileGUID>9b165b94-41c5-4961-a1ff-595d8006b029</dataFileGUID>
   <dataSourceUrl>C:\Users\Ivan Gonzales\Katalon Studio\Inbox Module Testcases\inbox search filter channel.xlsx</dataSourceUrl>
   <driver>ExcelFile</driver>
   <isInternalPath>false</isInternalPath>
   <query></query>
   <secureUserAccount>false</secureUserAccount>
   <sheetName>Sheet1</sheetName>
   <usingGlobalDBSetting>false</usingGlobalDBSetting>
</DataFileEntity>
